Soluzione Esercizi
…
Dato che il file  in formato csv (Comma Separated Value) allora posso usare la funzione read_csv altrimenti avrei dovuto utilizzare la funzione read_delim specificando manualmente il delimitatore.

Analizzare brevemente il dataset dopo averlo stampato a schermo e averne mostrato la struttura.

small_train
## # A tibble: 32,772 x 13
##     year month service departure_stati~ arrival_station journey_time_avg
##    <dbl> <dbl> <chr>   <chr>            <chr>                      <dbl>
##  1  2017     9 Nation~ PARIS EST        METZ                        85.1
##  2  2017     9 Nation~ REIMS            PARIS EST                   47.1
##  3  2017     9 Nation~ PARIS EST        STRASBOURG                 116. 
##  4  2017     9 Nation~ PARIS LYON       AVIGNON TGV                161. 
##  5  2017     9 Nation~ PARIS LYON       BELLEGARDE (AI~            164. 
##  6  2017     9 Nation~ PARIS LYON       BESANCON FRANC~            129. 
##  7  2017     9 Nation~ CHAMBERY CHALLE~ PARIS LYON                 184. 
##  8  2017     9 Nation~ PARIS LYON       GRENOBLE                   186. 
##  9  2017     9 Nation~ LYON PART DIEU   PARIS LYON                 121. 
## 10  2017     9 Nation~ PARIS LYON       MACON LOCHE                 97.4
## # ... with 32,762 more rows, and 7 more variables: total_num_trips <dbl>,
## #   avg_delay_all_departing <dbl>, avg_delay_all_arriving <dbl>,
## #   num_late_at_departure <dbl>, num_arriving_late <dbl>,
## #   delay_cause <chr>, delayed_number <dbl>
…
Selezionare tutte e sole le osservazioni per cui

A. Il numero di arrivi in ritardo in una tratta, codificato nella variabile num_arriving_late,  superiore a 100.

filter(small_train, num_arriving_late > 100)
## # A tibble: 1,614 x 13
##     year month service departure_stati~ arrival_station journey_time_avg
##    <dbl> <dbl> <chr>   <chr>            <chr>                      <dbl>
##  1  2017     9 Nation~ LYON PART DIEU   PARIS LYON                 121. 
##  2  2017     9 Nation~ BORDEAUX ST JEAN PARIS MONTPARN~            143. 
##  3  2017     7 Nation~ BORDEAUX ST JEAN PARIS MONTPARN~            144. 
##  4  2017     7 Nation~ PARIS MONTPARNA~ POITIERS                    94.3
##  5  2017    12 Nation~ BORDEAUX ST JEAN PARIS MONTPARN~            140. 
##  6  2017    12 Nation~ LILLE            PARIS NORD                  63.3
##  7  2017    11 Nation~ BORDEAUX ST JEAN PARIS MONTPARN~            143. 
##  8  2017    11 Nation~ LE MANS          PARIS MONTPARN~             56.2
##  9  2016    12 Nation~ LYON PART DIEU   MARSEILLE ST C~            105. 
## 10  2017    12 Nation~ NANTES           PARIS MONTPARN~            129. 
## # ... with 1,604 more rows, and 7 more variables: total_num_trips <dbl>,
## #   avg_delay_all_departing <dbl>, avg_delay_all_arriving <dbl>,
## #   num_late_at_departure <dbl>, num_arriving_late <dbl>,
## #   delay_cause <chr>, delayed_number <dbl>

B. Il numero di partenze in ritardo, codificato nella variabile num_late_at_departure,  inferiore a 50.

filter(small_train, num_late_at_departure < 50)
## # A tibble: 24,138 x 13
##     year month service departure_stati~ arrival_station journey_time_avg
##    <dbl> <dbl> <chr>   <chr>            <chr>                      <dbl>
##  1  2017     9 Nation~ PARIS EST        METZ                        85.1
##  2  2017     9 Nation~ REIMS            PARIS EST                   47.1
##  3  2017     9 Nation~ PARIS EST        STRASBOURG                 116. 
##  4  2017     9 Nation~ PARIS LYON       AVIGNON TGV                161. 
##  5  2017     9 Nation~ PARIS LYON       BELLEGARDE (AI~            164. 
##  6  2017     9 Nation~ PARIS LYON       BESANCON FRANC~            129. 
##  7  2017     9 Nation~ CHAMBERY CHALLE~ PARIS LYON                 184. 
##  8  2017     9 Nation~ PARIS LYON       GRENOBLE                   186. 
##  9  2017     9 Nation~ PARIS LYON       MACON LOCHE                 97.4
## 10  2017     9 Nation~ PARIS LYON       MARSEILLE ST C~            198. 
## # ... with 24,128 more rows, and 7 more variables: total_num_trips <dbl>,
## #   avg_delay_all_departing <dbl>, avg_delay_all_arriving <dbl>,
## #   num_late_at_departure <dbl>, num_arriving_late <dbl>,
## #   delay_cause <chr>, delayed_number <dbl>

C. La variabile service pari a National oppure NA

filter(small_train, service == "National" | is.na(service))
## # A tibble: 30,180 x 13
##     year month service departure_stati~ arrival_station journey_time_avg
##    <dbl> <dbl> <chr>   <chr>            <chr>                      <dbl>
##  1  2017     9 Nation~ PARIS EST        METZ                        85.1
##  2  2017     9 Nation~ REIMS            PARIS EST                   47.1
##  3  2017     9 Nation~ PARIS EST        STRASBOURG                 116. 
##  4  2017     9 Nation~ PARIS LYON       AVIGNON TGV                161. 
##  5  2017     9 Nation~ PARIS LYON       BELLEGARDE (AI~            164. 
##  6  2017     9 Nation~ PARIS LYON       BESANCON FRANC~            129. 
##  7  2017     9 Nation~ CHAMBERY CHALLE~ PARIS LYON                 184. 
##  8  2017     9 Nation~ PARIS LYON       GRENOBLE                   186. 
##  9  2017     9 Nation~ LYON PART DIEU   PARIS LYON                 121. 
## 10  2017     9 Nation~ PARIS LYON       MACON LOCHE                 97.4
## # ... with 30,170 more rows, and 7 more variables: total_num_trips <dbl>,
## #   avg_delay_all_departing <dbl>, avg_delay_all_arriving <dbl>,
## #   num_late_at_departure <dbl>, num_arriving_late <dbl>,
## #   delay_cause <chr>, delayed_number <dbl>

D. La variabile month  minore di 4 oppure maggiore di 10.

filter(small_train, month < 4 | month > 10)
## # A tibble: 13,200 x 13
##     year month service departure_stati~ arrival_station journey_time_avg
##    <dbl> <dbl> <chr>   <chr>            <chr>                      <dbl>
##  1  2017     1 Nation~ ANGERS SAINT LA~ PARIS MONTPARN~             96.6
##  2  2017     1 Nation~ DOUAI            PARIS NORD                  79.5
##  3  2017     1 Nation~ LYON PART DIEU   LILLE                      187. 
##  4  2017     1 Nation~ MACON LOCHE      PARIS LYON                  98.9
##  5  2017     1 Nation~ MARSEILLE ST CH~ PARIS LYON                 201. 
##  6  2017     1 Nation~ MARSEILLE ST CH~ LILLE                      300. 
##  7  2017     1 Nation~ NANCY            PARIS EST                   93.8
##  8  2017     1 Nation~ PARIS EST        NANCY                       95.2
##  9  2017     1 Nation~ PARIS LYON       LE CREUSOT MON~             78.8
## 10  2017     1 Nation~ PARIS LYON       MACON LOCHE                 95.8
## # ... with 13,190 more rows, and 7 more variables: total_num_trips <dbl>,
## #   avg_delay_all_departing <dbl>, avg_delay_all_arriving <dbl>,
## #   num_late_at_departure <dbl>, num_arriving_late <dbl>,
## #   delay_cause <chr>, delayed_number <dbl>

E. Il ritardo medio per tutti i treni in partenza (codificato nella variabile avg_delay_all_departing) ed il ritardo medio per tutti i treni in arrivo (codificato nella variabile avg_delay_all_arriving)  inferiore, in valore assoluto, a 50.

filter(small_train, abs(avg_delay_all_departing) < 50 , abs(avg_delay_all_arriving) < 50)
## # A tibble: 32,730 x 13
##     year month service departure_stati~ arrival_station journey_time_avg
##    <dbl> <dbl> <chr>   <chr>            <chr>                      <dbl>
##  1  2017     9 Nation~ PARIS EST        METZ                        85.1
##  2  2017     9 Nation~ REIMS            PARIS EST                   47.1
##  3  2017     9 Nation~ PARIS EST        STRASBOURG                 116. 
##  4  2017     9 Nation~ PARIS LYON       AVIGNON TGV                161. 
##  5  2017     9 Nation~ PARIS LYON       BELLEGARDE (AI~            164. 
##  6  2017     9 Nation~ PARIS LYON       BESANCON FRANC~            129. 
##  7  2017     9 Nation~ CHAMBERY CHALLE~ PARIS LYON                 184. 
##  8  2017     9 Nation~ PARIS LYON       GRENOBLE                   186. 
##  9  2017     9 Nation~ LYON PART DIEU   PARIS LYON                 121. 
## 10  2017     9 Nation~ PARIS LYON       MACON LOCHE                 97.4
## # ... with 32,720 more rows, and 7 more variables: total_num_trips <dbl>,
## #   avg_delay_all_departing <dbl>, avg_delay_all_arriving <dbl>,
## #   num_late_at_departure <dbl>, num_arriving_late <dbl>,
## #   delay_cause <chr>, delayed_number <dbl>
…
Se necessario caricate il pacchetto dplyr.

Quali sono le tratte con il maggior numero di minuti di ritardo? E quali quelle con il numero minore?

Se consideriamo il ritardo allarrivo allora risulta:

arrange(small_train, avg_delay_all_arriving)
## # A tibble: 32,772 x 13
##     year month service departure_stati~ arrival_station journey_time_avg
##    <dbl> <dbl> <chr>   <chr>            <chr>                      <dbl>
##  1  2016    12 Intern~ PARIS LYON       ITALIE                      290.
##  2  2016    12 Intern~ PARIS LYON       ITALIE                      290.
##  3  2016    12 Intern~ PARIS LYON       ITALIE                      290.
##  4  2016    12 Intern~ PARIS LYON       ITALIE                      290.
##  5  2016    12 Intern~ PARIS LYON       ITALIE                      290.
##  6  2016    12 Intern~ PARIS LYON       ITALIE                      290.
##  7  2017    11 Nation~ PARIS LYON       GRENOBLE                    184.
##  8  2017    11 Nation~ PARIS LYON       GRENOBLE                    184.
##  9  2017    11 Nation~ PARIS LYON       GRENOBLE                    184.
## 10  2017    11 Nation~ PARIS LYON       GRENOBLE                    184.
## # ... with 32,762 more rows, and 7 more variables: total_num_trips <dbl>,
## #   avg_delay_all_departing <dbl>, avg_delay_all_arriving <dbl>,
## #   num_late_at_departure <dbl>, num_arriving_late <dbl>,
## #   delay_cause <chr>, delayed_number <dbl>
arrange(small_train, desc(avg_delay_all_arriving))
## # A tibble: 32,772 x 13
##     year month service departure_stati~ arrival_station journey_time_avg
##    <dbl> <dbl> <chr>   <chr>            <chr>                      <dbl>
##  1  2018     7 <NA>    LYON PART DIEU   RENNES                      235.
##  2  2018     7 <NA>    LYON PART DIEU   RENNES                      235.
##  3  2018     7 <NA>    LYON PART DIEU   RENNES                      235.
##  4  2018     7 <NA>    LYON PART DIEU   RENNES                      235.
##  5  2018     7 <NA>    LYON PART DIEU   RENNES                      235.
##  6  2018     7 <NA>    LYON PART DIEU   RENNES                      235.
##  7  2018     6 <NA>    PARIS LYON       ITALIE                      262.
##  8  2018     6 <NA>    PARIS LYON       ITALIE                      262.
##  9  2018     6 <NA>    PARIS LYON       ITALIE                      262.
## 10  2018     6 <NA>    PARIS LYON       ITALIE                      262.
## # ... with 32,762 more rows, and 7 more variables: total_num_trips <dbl>,
## #   avg_delay_all_departing <dbl>, avg_delay_all_arriving <dbl>,
## #   num_late_at_departure <dbl>, num_arriving_late <dbl>,
## #   delay_cause <chr>, delayed_number <dbl>

Quali sono le tratte pi frequentate? E quelle meno frequentate? E quelle con il maggiore numero di treni in ritardo?

Le tratte pi frequentate sono

arrange(small_train, desc(total_num_trips))
## # A tibble: 32,772 x 13
##     year month service departure_stati~ arrival_station journey_time_avg
##    <dbl> <dbl> <chr>   <chr>            <chr>                      <dbl>
##  1  2018     3 <NA>    BORDEAUX ST JEAN PARIS MONTPARN~             141.
##  2  2018     3 <NA>    BORDEAUX ST JEAN PARIS MONTPARN~             141.
##  3  2018     3 <NA>    BORDEAUX ST JEAN PARIS MONTPARN~             141.
##  4  2018     3 <NA>    BORDEAUX ST JEAN PARIS MONTPARN~             141.
##  5  2018     3 <NA>    BORDEAUX ST JEAN PARIS MONTPARN~             141.
##  6  2018     3 <NA>    BORDEAUX ST JEAN PARIS MONTPARN~             141.
##  7  2017    12 Nation~ BORDEAUX ST JEAN PARIS MONTPARN~             140.
##  8  2017    12 Nation~ BORDEAUX ST JEAN PARIS MONTPARN~             140.
##  9  2017    12 Nation~ BORDEAUX ST JEAN PARIS MONTPARN~             140.
## 10  2017    12 Nation~ BORDEAUX ST JEAN PARIS MONTPARN~             140.
## # ... with 32,762 more rows, and 7 more variables: total_num_trips <dbl>,
## #   avg_delay_all_departing <dbl>, avg_delay_all_arriving <dbl>,
## #   num_late_at_departure <dbl>, num_arriving_late <dbl>,
## #   delay_cause <chr>, delayed_number <dbl>

e quelle meno frequentate sono

arrange(small_train, total_num_trips)
## # A tibble: 32,772 x 13
##     year month service departure_stati~ arrival_station journey_time_avg
##    <dbl> <dbl> <chr>   <chr>            <chr>                      <dbl>
##  1  2018     8 <NA>    TOURCOING        BORDEAUX ST JE~             280.
##  2  2018     8 <NA>    TOURCOING        BORDEAUX ST JE~             280.
##  3  2018     8 <NA>    TOURCOING        BORDEAUX ST JE~             280.
##  4  2018     8 <NA>    TOURCOING        BORDEAUX ST JE~             280.
##  5  2018     8 <NA>    TOURCOING        BORDEAUX ST JE~             280.
##  6  2018     8 <NA>    TOURCOING        BORDEAUX ST JE~             280.
##  7  2018     8 <NA>    BORDEAUX ST JEAN TOURCOING                   293.
##  8  2018     8 <NA>    BORDEAUX ST JEAN TOURCOING                   293.
##  9  2018     8 <NA>    BORDEAUX ST JEAN TOURCOING                   293.
## 10  2018     8 <NA>    BORDEAUX ST JEAN TOURCOING                   293.
## # ... with 32,762 more rows, and 7 more variables: total_num_trips <dbl>,
## #   avg_delay_all_departing <dbl>, avg_delay_all_arriving <dbl>,
## #   num_late_at_departure <dbl>, num_arriving_late <dbl>,
## #   delay_cause <chr>, delayed_number <dbl>

Le tratte con il maggior numero di treni in ritardo (sempre allarrivo) sono:

arrange(small_train, desc(num_arriving_late))
## # A tibble: 32,772 x 13
##     year month service departure_stati~ arrival_station journey_time_avg
##    <dbl> <dbl> <chr>   <chr>            <chr>                      <dbl>
##  1  2018     7 <NA>    LYON PART DIEU   MARSEILLE ST C~             105.
##  2  2018     7 <NA>    LYON PART DIEU   MARSEILLE ST C~             105.
##  3  2018     7 <NA>    LYON PART DIEU   MARSEILLE ST C~             105.
##  4  2018     7 <NA>    LYON PART DIEU   MARSEILLE ST C~             105.
##  5  2018     7 <NA>    LYON PART DIEU   MARSEILLE ST C~             105.
##  6  2018     7 <NA>    LYON PART DIEU   MARSEILLE ST C~             105.
##  7  2015     7 Nation~ MARSEILLE ST CH~ LYON PART DIEU              101.
##  8  2015     7 Nation~ MARSEILLE ST CH~ LYON PART DIEU              101.
##  9  2015     7 Nation~ MARSEILLE ST CH~ LYON PART DIEU              101.
## 10  2015     7 Nation~ MARSEILLE ST CH~ LYON PART DIEU              101.
## # ... with 32,762 more rows, and 7 more variables: total_num_trips <dbl>,
## #   avg_delay_all_departing <dbl>, avg_delay_all_arriving <dbl>,
## #   num_late_at_departure <dbl>, num_arriving_late <dbl>,
## #   delay_cause <chr>, delayed_number <dbl>
…
Se necessario caricate il pacchetto dplyr.

Selezioniamo unicamente le variabili total_num_trips e delay_cause.

select(small_train, total_num_trips, delay_cause)
## # A tibble: 32,772 x 2
##    total_num_trips delay_cause               
##              <dbl> <chr>                     
##  1             299 delay_cause_external_cause
##  2             218 delay_cause_external_cause
##  3             333 delay_cause_external_cause
##  4             481 delay_cause_external_cause
##  5             190 delay_cause_external_cause
##  6             191 delay_cause_external_cause
##  7             208 delay_cause_external_cause
##  8             216 delay_cause_external_cause
##  9             661 delay_cause_external_cause
## 10             201 delay_cause_external_cause
## # ... with 32,762 more rows

Selezionare unicamente le variabili che iniziano con la stringa avg, le variabili che terminano con la stringa station e le variabili che contengono la stringa num.

select(small_train, starts_with("avg"), ends_with("station"), contains("num"))
## # A tibble: 32,772 x 8
##    avg_delay_all_d~ avg_delay_all_a~ departure_stati~ arrival_station
##               <dbl>            <dbl> <chr>            <chr>          
##  1            0.752            0.420 PARIS EST        METZ           
##  2            1.26             1.14  REIMS            PARIS EST      
##  3            1.14             1.59  PARIS EST        STRASBOURG     
##  4            1.41             4.79  PARIS LYON       AVIGNON TGV    
##  5            1.73             6.01  PARIS LYON       BELLEGARDE (AI~
##  6            1.84             5.03  PARIS LYON       BESANCON FRANC~
##  7            3.82             6.45  CHAMBERY CHALLE~ PARIS LYON     
##  8            2.21             6.58  PARIS LYON       GRENOBLE       
##  9            3.90             5.35  LYON PART DIEU   PARIS LYON     
## 10            2.14             5.14  PARIS LYON       MACON LOCHE    
## # ... with 32,762 more rows, and 4 more variables: total_num_trips <dbl>,
## #   num_late_at_departure <dbl>, num_arriving_late <dbl>,
## #   delayed_number <dbl>
…
Se necessario caricate il pacchetto dplyr.

Creiamo ora diverse nuove variabili:

A. La differenza tra il ritardo medio alla partenza ed il ritardo medio allarrivo.

mutate(small_train, trip_gain = avg_delay_all_arriving - avg_delay_all_departing)
## # A tibble: 32,772 x 14
##     year month service departure_stati~ arrival_station journey_time_avg
##    <dbl> <dbl> <chr>   <chr>            <chr>                      <dbl>
##  1  2017     9 Nation~ PARIS EST        METZ                        85.1
##  2  2017     9 Nation~ REIMS            PARIS EST                   47.1
##  3  2017     9 Nation~ PARIS EST        STRASBOURG                 116. 
##  4  2017     9 Nation~ PARIS LYON       AVIGNON TGV                161. 
##  5  2017     9 Nation~ PARIS LYON       BELLEGARDE (AI~            164. 
##  6  2017     9 Nation~ PARIS LYON       BESANCON FRANC~            129. 
##  7  2017     9 Nation~ CHAMBERY CHALLE~ PARIS LYON                 184. 
##  8  2017     9 Nation~ PARIS LYON       GRENOBLE                   186. 
##  9  2017     9 Nation~ LYON PART DIEU   PARIS LYON                 121. 
## 10  2017     9 Nation~ PARIS LYON       MACON LOCHE                 97.4
## # ... with 32,762 more rows, and 8 more variables: total_num_trips <dbl>,
## #   avg_delay_all_departing <dbl>, avg_delay_all_arriving <dbl>,
## #   num_late_at_departure <dbl>, num_arriving_late <dbl>,
## #   delay_cause <chr>, delayed_number <dbl>, trip_gain <dbl>
…
